F:\EFREI\M1\Distributed Algorithms\TP\akka-quickstart-java\src\main\java\com\lightbend\akka\sample\GreeterMain.java
F:\EFREI\M1\Distributed Algorithms\TP\akka-quickstart-java\src\main\java\com\lightbend\akka\sample\GreeterBot.java
F:\EFREI\M1\Distributed Algorithms\TP\akka-quickstart-java\src\main\java\com\lightbend\akka\sample\AkkaQuickstart.java
F:\EFREI\M1\Distributed Algorithms\TP\akka-quickstart-java\src\main\java\com\lightbend\akka\sample\Greeter.java
